{
  "id": "add-users-to-utc-offset-weekday-join-table",
  "description": "Calculates weekday of the first day of user pregnancy week, combines it with user UTC offset and writes result into two join tables with boolean values under the pathes /usersByUTCOffsetWeekday/{UTCOffset_weekday}/{userId} and /UTCOffsetWeekdayByUser/{userId}/{UTCOffset_weekday}. Does this for every user. Doesn't remove any data, only makes updates.",
  "hasRollback": false,
  "isIdempotent": true
}
