{
  "default": "#ffffff",
  "list": {
    "#ffffff": {
      "backgroundColor": "#ffffff",
      "brandColor": "#000000",
      "logoColor": "#fa4169",
      "logoHeartColor": "#ffffff"
    },
    "#e99c4b": {
      "backgroundColor": "#e99c4b",
      "brandColor": "#ffffff"
    },
    "#ecc74a": {
      "backgroundColor": "#ecc74a",
      "brandColor": "#ffffff"
    },
    "#33b6af": {
      "backgroundColor": "#33b6af",
      "brandColor": "#ffffff"
    }
  }
}
