{
  "MAILING__IS_ENABLED": true,
  "MAILING__SLACK_WEBHOOK": "https://hooks.slack.com/services/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",
  "JOB_QUEUE__SLACK_WEBHOOK": "https://hooks.slack.com/services/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",
  "CONTENT_SERVICE__BASE_URL": "http://stroller-content-service.kbweb.se/v1",
  "API__URL": "https://us-central1-preggers-development.cloudfunctions.net"
}
